%YAML 1.1
%TAG !u! tag:unity3d.com,2011:
--- !u!114 &11400000
MonoBehaviour:
  m_ObjectHideFlags: 0
  m_CorrespondingSourceObject: {fileID: 0}
  m_PrefabInstance: {fileID: 0}
  m_PrefabAsset: {fileID: 0}
  m_GameObject: {fileID: 0}
  m_Enabled: 1
  m_EditorHideFlags: 0
  m_Script: {fileID: 11500000, guid: 29572f6fe8fa9304dae31d050370bc62, type: 3}
  m_Name: Mouse Y
  m_EditorClassIdentifier: 
  targetString: Mouse Y
  value: 0
  variable: {fileID: 11400000, guid: 7136bcc703f0e5a4caac274077231744, type: 2}
